{
    "custumers": [
        {
            "id": 1,
            "date":"05/05/2019",
            "name":"Daniella Rocha",
            "email":"dani@goncalves.com",
            "type":"fisica",
            "phone":"1126251167",
            "address":"Rua jatauba",
            "cep":"40242690890",
            "neighborhood":"Aruja",
            "uf":"SP",
            "obs":"forno no lugar"
        },
        {
            "id": 2,
            "date":"18/09/2019",
            "name":"Rafaela Trevizan",
            "email":"dani@goncalves.com",
            "type":"fisica",
            "phone":"1126251167",
            "address":"Rua jatauba",
            "cep":"40242690890",
            "neighborhood":"Tatuapé",
            "uf":"SP",
            "obs":"forno no lugar"
    
        },
        {
            "id": 3,
            "date":"05/05/2019",
            "name":"Fania Rocha Gonçalves",
            "email":"dani@goncalves.com",
            "type":"fisica",
            "phone":"1126251167",
            "address":"Rua jatauba",
            "cep":"40242690890",
            "neighborhood":"Jd Danfer",
            "uf":"SP",
            "obs":"forno no lugar"
        },
        {
            "id": 4,
            "date":"27/10/2019",
            "name":"Jairo Rodrigues Gonçalves Junior",
            "email":"dani@goncalves.com",
            "type":"fisica",
            "phone":"1126251167",
            "address":"Rua jatauba",
            "cep":"40242690890",
            "neighborhood":"Anália Franco",
            "uf":"SP",
            "obs":"forno no lugar"
        },
        {
            "id": 5,
            "date":"05/11/2019",
            "name":"Jairo Rodrigues Gonçalves",
            "email":"dani@goncalves.com",
            "type":"fisica",
            "phone":"1126251167",
            "address":"Rua jatauba",
            "cep":"40242690890",
            "neighborhood":"São Miguel",
            "uf":"Santos",
            "obs":"forno no lugar"
          
        }
    ]
}


