{
    "events": [
        {
            "id": 1,
            "date":"05/05/2019",
            "type":"Pizza 2",
            "guests":"30",
            "user_id":"1",
            "status":"recebido",
            "createdAt":"18/01/2019"
           
        },
        {
            "id": 2,
            "date":"05/05/2019",
            "type":"Pizza 2",
            "guests":"30",
            "user_id":"2",
            "status":"recebido",
            "createdAt":"18/01/2019"
           
        },
        {
            "id": 3,
            "date":"05/05/2019",
            "type":"Pizza 2",
            "guests":"30",
            "user_id":"3",
            "status":"recebido",
            "createdAt":"18/01/2019"
           
        }
    ]
}