{
    "optionsService": 
        {
            "manpower":[
                {
                    "id":"1",
                    "type":"manpower",
                    "value":"Pizzaiollo",
                    "qtd":"1"

                }
            ],
            "utensils":[
                {
                    "id":"1",
                    "type":"utensils",
                    "value":"pratos",
                    "qtd":"20"

                }
            ],
            "AdditionalService":[
                {
                    "id":"1",
                    "type":"AdditionalService",
                    "value":"copeiras",
                    "qtd":"1"

                }
            ],
            "AdditionalProduct":[
                {
                    "id":"1",
                    "type":"AdditionalProduct",
                    "value":"copos",
                    "qtd":"20"

                }
            ]
           
        }

    
}

